10 Data wrangling | Introduction to DataCamp
…
Type gapminder, on its own line, to look at the gapminder dataset.

# Look at the gapminder dataset
gapminder
#> # A tibble: 1,704 × 6
#>   country     continent  year lifeExp      pop gdpPercap
#>   <fct>       <fct>     <int>   <dbl>    <int>     <dbl>
#> 1 Afghanistan Asia       1952    28.8  8425333      779.
#> 2 Afghanistan Asia       1957    30.3  9240934      821.
#> 3 Afghanistan Asia       1962    32.0 10267083      853.
#> 4 Afghanistan Asia       1967    34.0 11537966      836.
#> 5 Afghanistan Asia       1972    36.1 13079460      740.
#> 6 Afghanistan Asia       1977    38.4 14880372      786.
#> # … with 1,698 more rows
…
10.2.1 Filtering for one year

The filter verb extracts particular observations based on a condition.
In this exercise you’ll filter for observations from a particular year.

Add a filter() line after the pipe (%>%) to extract only the observations from the year 1957.
Remember that you use == to compare two values.

library(gapminder)
library(dplyr)

# Filter the gapminder dataset for the year 1957
gapminder %>%
  filter(year == 1957)
#> # A tibble: 142 × 6
#>   country     continent  year lifeExp      pop gdpPercap
#>   <fct>       <fct>     <int>   <dbl>    <int>     <dbl>
#> 1 Afghanistan Asia       1957    30.3  9240934      821.
#> 2 Albania     Europe     1957    59.3  1476505     1942.
#> 3 Algeria     Africa     1957    45.7 10270856     3014.
#> 4 Angola      Africa     1957    32.0  4561361     3828.
#> 5 Argentina   Americas   1957    64.4 19610538     6857.
#> 6 Australia   Oceania    1957    70.3  9712569    10950.
#> # … with 136 more rows
…
10.3.1 Arranging observations by life expectancy

You use arrange() to sort observations in ascending or descending order of a particular variable.
In this case, you’ll sort the dataset based on the lifeExp variable.

Sort the gapminder dataset in ascending order of life expectancy (lifeExp).

library(gapminder)
library(dplyr)

# Sort in ascending order of lifeExp
gapminder %>%
  arrange(lifeExp)
#> # A tibble: 1,704 × 6
#>   country      continent  year lifeExp     pop gdpPercap
#>   <fct>        <fct>     <int>   <dbl>   <int>     <dbl>
#> 1 Rwanda       Africa     1992    23.6 7290203      737.
#> 2 Afghanistan  Asia       1952    28.8 8425333      779.
#> 3 Gambia       Africa     1952    30    284320      485.
#> 4 Angola       Africa     1952    30.0 4232095     3521.
#> 5 Sierra Leone Africa     1952    30.3 2143249      880.
#> 6 Afghanistan  Asia       1957    30.3 9240934      821.
#> # … with 1,698 more rows

Sort the gapminder dataset in descending order of life expectancy.

# Sort in descending order of lifeExp
gapminder %>%
  arrange(desc(lifeExp))
#> # A tibble: 1,704 × 6
#>   country          continent  year lifeExp       pop gdpPercap
#>   <fct>            <fct>     <int>   <dbl>     <int>     <dbl>
#> 1 Japan            Asia       2007    82.6 127467972    31656.
#> 2 Hong Kong, China Asia       2007    82.2   6980412    39725.
#> 3 Japan            Asia       2002    82   127065841    28605.
#> 4 Iceland          Europe     2007    81.8    301931    36181.
#> 5 Switzerland      Europe     2007    81.7   7554661    37506.
#> 6 Hong Kong, China Asia       2002    81.5   6762476    30209.
#> # … with 1,698 more rows
…
10.3.2 Filtering and arranging

You’ll often need to use the pipe operator (%>%) to combine multiple dplyr verbs in a row.
In this case, you’ll combine a filter() with an arrange() to find the highest population countries in a particular year.

Use filter() to extract observations from just the year 1957, then use arrange() to sort in descending order of population (pop).

library(gapminder)
library(dplyr)

# Filter for the year 1957, then arrange in descending order of population
gapminder %>%
  filter(year == 1957) %>%
  arrange(desc(pop))
#> # A tibble: 142 × 6
#>   country       continent  year lifeExp       pop gdpPercap
#>   <fct>         <fct>     <int>   <dbl>     <int>     <dbl>
#> 1 China         Asia       1957    50.5 637408000      576.
#> 2 India         Asia       1957    40.2 409000000      590.
#> 3 United States Americas   1957    69.5 171984000    14847.
#> 4 Japan         Asia       1957    65.5  91563009     4318.
#> 5 Indonesia     Asia       1957    39.9  90124000      859.
#> 6 Germany       Europe     1957    69.1  71019069    10188.
#> # … with 136 more rows
…
10.4.1 Using mutate to change or create a column

Suppose we want life expectancy to be measured in months instead of years: you’d have to multiply the existing value by 12.
You can use the mutate() verb to change this column, or to create a new column that’s calculated this way.

Use mutate() to change the existing lifeExp column, by multiplying it by 12: 12 * lifeExp.

library(gapminder)
library(dplyr)

# Use mutate to change lifeExp to be in months
gapminder %>%
  mutate(lifeExp = lifeExp * 12)
#> # A tibble: 1,704 × 6
#>   country     continent  year lifeExp      pop gdpPercap
#>   <fct>       <fct>     <int>   <dbl>    <int>     <dbl>
#> 1 Afghanistan Asia       1952    346.  8425333      779.
#> 2 Afghanistan Asia       1957    364.  9240934      821.
#> 3 Afghanistan Asia       1962    384. 10267083      853.
#> 4 Afghanistan Asia       1967    408. 11537966      836.
#> 5 Afghanistan Asia       1972    433. 13079460      740.
#> 6 Afghanistan Asia       1977    461. 14880372      786.
#> # … with 1,698 more rows

Use mutate() to add a new column, called lifeExpMonths, calculated as 12 * lifeExp.

# Use mutate to create a new column called lifeExpMonths
gapminder %>%
  mutate(lifeExpMonths = lifeExp * 12)
#> # A tibble: 1,704 × 7
#>   country     continent  year lifeExp      pop gdpPercap lifeExpMonths
#>   <fct>       <fct>     <int>   <dbl>    <int>     <dbl>         <dbl>
#> 1 Afghanistan Asia       1952    28.8  8425333      779.          346.
#> 2 Afghanistan Asia       1957    30.3  9240934      821.          364.
#> 3 Afghanistan Asia       1962    32.0 10267083      853.          384.
#> 4 Afghanistan Asia       1967    34.0 11537966      836.          408.
#> 5 Afghanistan Asia       1972    36.1 13079460      740.          433.
#> 6 Afghanistan Asia       1977    38.4 14880372      786.          461.
#> # … with 1,698 more rows
…
filter() for observations from the year 2007,

mutate() to create a column lifeExpMonths, calculated as 12 * lifeExp, and

arrange() in descending order of that new column

library(gapminder)
library(dplyr)

# Filter, mutate, and arrange the gapminder dataset
gapminder %>%
  filter(year == 2007) %>%
  mutate(lifeExpMonths = 12 * lifeExp) %>%
  arrange(desc(lifeExpMonths))
#> # A tibble: 142 × 7
#>   country          continent  year lifeExp       pop gdpPercap lifeExpMonths
#>   <fct>            <fct>     <int>   <dbl>     <int>     <dbl>         <dbl>
#> 1 Japan            Asia       2007    82.6 127467972    31656.          991.
#> 2 Hong Kong, China Asia       2007    82.2   6980412    39725.          986.
#> 3 Iceland          Europe     2007    81.8    301931    36181.          981.
#> 4 Switzerland      Europe     2007    81.7   7554661    37506.          980.
#> 5 Australia        Oceania    2007    81.2  20434176    34435.          975.
#> 6 Spain            Europe     2007    80.9  40448191    28821.          971.
#> # … with 136 more rows
…
