12 Grouping and summarizing | Introduction to DataCamp
…
In a previous exercise, you found the median life expectancy and the maximum GDP per capita in the year 1957.
Now, you’ll perform those two summaries within each year in the dataset, using the group_by verb.

Find the median life expectancy (lifeExp) and maximum GDP per capita (gdpPercap) within each year, saving them into medianLifeExp and maxGdpPercap, respectively.

library(gapminder)
library(dplyr)

# Find median life expectancy and maximum GDP per capita in each year
gapminder %>%
  group_by(year) %>%
  summarize(medianLifeExp = median(lifeExp),
            maxGdpPercap = max(gdpPercap))
#> # A tibble: 12 × 3
#>    year medianLifeExp maxGdpPercap
#>   <int>         <dbl>        <dbl>
#> 1  1952          45.1      108382.
#> 2  1957          48.4      113523.
#> 3  1962          50.9       95458.
#> 4  1967          53.8       80895.
#> 5  1972          56.5      109348.
#> 6  1977          59.7       59265.
#> # … with 6 more rows
…
Instead of grouping just by year, or just by continent, you’ll now group by both continent and year to summarize within each.

Find the median life expectancy (lifeExp) and maximum GDP per capita (gdpPercap) within each combination of continent and year, saving them into medianLifeExp and maxGdpPercap, respectively.

library(gapminder)
library(dplyr)

# Find median life expectancy and maximum GDP per capita in each continent/year combination
gapminder %>%
  group_by(continent, year) %>%
  summarize(medianLifeExp = median(lifeExp),
            maxGdpPercap = max(gdpPercap))
#> `summarise()` has grouped output by 'continent'. You can override using the
#> `.groups` argument.
#> # A tibble: 60 × 4
#> # Groups:   continent [5]
#>   continent  year medianLifeExp maxGdpPercap
#>   <fct>     <int>         <dbl>        <dbl>
#> 1 Africa     1952          38.8        4725.
#> 2 Africa     1957          40.6        5487.
#> 3 Africa     1962          42.6        6757.
#> 4 Africa     1967          44.7       18773.
#> 5 Africa     1972          47.0       21011.
#> 6 Africa     1977          49.3       21951.
#> # … with 54 more rows
…
